{
  "type": "tab",
  "id": "333ffb45.ccc004",
  "label": "Twilio Call",
  "flow": [
    {
      "id": "7891f8b7.876e08",
      "type": "twilio-connection",
      "z": "333ffb45.ccc004",
      "name": "Red Ant",
      "api_sid": "AC08acacf831614258d5421508c6c2879e",
      "api_token": "502082abaceb7ecc95937ddb054454b2"
    },
    {
      "id": "826780cc.7d988",
      "type": "twilio-say",
      "z": "333ffb45.ccc004",
      "creds": "7891f8b7.876e08",
      "name": "",
      "x": 546,
      "y": 114,
      "wires": [
        [
          "cab675c9.354988"
        ]
      ]
    },
    {
      "id": "536d1ff9.ac92e",
      "type": "http in",
      "z": "333ffb45.ccc004",
      "name": "",
      "url": "/say",
      "method": "post",
      "swaggerDoc": "",
      "x": 225,
      "y": 113,
      "wires": [
        [
          "f527717a.0ad89"
        ]
      ]
    },
    {
      "id": "cab675c9.354988",
      "type": "http response",
      "z": "333ffb45.ccc004",
      "name": "",
      "x": 703,
      "y": 114,
      "wires": []
    },
    {
      "id": "f527717a.0ad89",
      "type": "function",
      "z": "333ffb45.ccc004",
      "name": "",
      "func": "msg.payload = {\n    text: \"Hi there, this is Andrew from On The Dot, and I'm definitely a real human. I'm sorry to hear about your issue - how can I help you, fellow human?\"    \n};\nreturn msg;",
      "outputs": 1,
      "noerr": 0,
      "x": 395.5,
      "y": 114,
      "wires": [
        [
          "826780cc.7d988"
        ]
      ]
    }
  ]
}