{
  "id": "6f105f42.90efa",
  "type": "subflow",
  "name": "Get Intent",
  "info": "",
  "in": [
    {
      "x": 940,
      "y": 100,
      "wires": [
        {
          "id": "dd63f223.30e02"
        }
      ]
    }
  ],
  "out": [
    {
      "x": 1200,
      "y": 100,
      "wires": [
        {
          "id": "dd63f223.30e02",
          "port": 0
        }
      ]
    }
  ],
  "flow": [
    {
      "id": "dd63f223.30e02",
      "type": "wit.ai",
      "z": "6f105f42.90efa",
      "name": "AI",
      "access_token": "LI522TWUS3ST6RNWMBLM3QOIKQCNGLSY",
      "version": "20160316",
      "x": 1070,
      "y": 100,
      "wires": [
        []
      ]
    }
  ]
}