{
  "id": "80e457d5.914958",
  "type": "subflow",
  "name": "Check delivery slot",
  "info": "",
  "in": [
    {
      "x": 200,
      "y": 60,
      "wires": [
        {
          "id": "397c233c.9fafac"
        }
      ]
    }
  ],
  "out": [
    {
      "x": 420,
      "y": 60,
      "wires": [
        {
          "id": "397c233c.9fafac",
          "port": 0
        }
      ]
    }
  ],
  "flow": [
    {
      "id": "397c233c.9fafac",
      "type": "function",
      "z": "80e457d5.914958",
      "name": "",
      "func": "msg.payload = {\n    message : 'give_timeslot'\n}\nreturn msg;",
      "outputs": 1,
      "noerr": 0,
      "x": 310,
      "y": 60,
      "wires": [
        []
      ]
    }
  ]
}