{
  "id": "94496328.f50fa",
  "type": "subflow",
  "name": "Send to telegram",
  "info": "",
  "in": [
    {
      "x": 40,
      "y": 140,
      "wires": [
        {
          "id": "c031e63e.29a9e8"
        }
      ]
    }
  ],
  "out": [
    {
      "x": 740,
      "y": 140,
      "wires": [
        {
          "id": "c4a378f6.783488",
          "port": 0
        }
      ]
    }
  ],
  "flow": [
    {
      "id": "41c7e778.52b8b8",
      "type": "twilio-connection",
      "z": "94496328.f50fa",
      "name": "Red Ant",
      "api_sid": "AC08acacf831614258d5421508c6c2879e",
      "api_token": "502082abaceb7ecc95937ddb054454b2"
    },
    {
      "id": "c4a378f6.783488",
      "type": "telegram sender",
      "z": "94496328.f50fa",
      "name": "",
      "bot": "e7616ef2.51128",
      "x": 590,
      "y": 140,
      "wires": [
        []
      ]
    },
    {
      "id": "f10ad9b4.88d468",
      "type": "function",
      "z": "94496328.f50fa",
      "name": "",
      "func": "msg.payload = {\n    content : msg.payload,\n    chatId : msg.chatId,\n    type : msg.msgType\n};\nreturn msg;",
      "outputs": 1,
      "noerr": 0,
      "x": 410,
      "y": 140,
      "wires": [
        [
          "c4a378f6.783488",
          "54a1c217.648e7c"
        ]
      ]
    },
    {
      "id": "a7e928ca.79e608",
      "type": "template-2.0",
      "z": "94496328.f50fa",
      "name": "",
      "field": "payload",
      "fieldType": "msg",
      "format": "handlebars",
      "syntax": "mustache",
      "template": "This is the payload: {{payload}} !",
      "x": 270,
      "y": 100,
      "wires": [
        [
          "f10ad9b4.88d468"
        ]
      ]
    },
    {
      "id": "c031e63e.29a9e8",
      "type": "function",
      "z": "94496328.f50fa",
      "name": "",
      "func": "if ( msg.payload.indexOf('%loc') === 0 ) {\n    msg.msgType = 'location';\n    var lat,lng;\n    msg.payload = msg.payload.slice(5,-1).split(':');\n    msg.payload = {\n        latitude : msg.payload[0],\n        longitude: msg.payload[1]\n    }\n    return [null,msg,null];\n}\nif ( msg.payload.indexOf('%call') === 0 ) {\n    msg.payload = {\n        to : msg.payload.slice(6,-1)\n    };\n    return [null,null,msg];\n}\nmsg.template = msg.payload;\nmsg.msgType = 'message';\nreturn [msg,null,null];",
      "outputs": "3",
      "noerr": 0,
      "x": 150,
      "y": 140,
      "wires": [
        [
          "a7e928ca.79e608"
        ],
        [
          "f10ad9b4.88d468"
        ],
        [
          "5448b87f.e6ff08",
          "d6a21c44.0a1be"
        ]
      ]
    },
    {
      "id": "5448b87f.e6ff08",
      "type": "twilio-call",
      "z": "94496328.f50fa",
      "creds": "41c7e778.52b8b8",
      "name": "",
      "to": "",
      "from": "+441183100401",
      "twilio_url": "https://techsprint1.redconnectapp.io/say",
      "x": 290,
      "y": 180,
      "wires": [
        []
      ]
    },
    {
      "id": "d6a21c44.0a1be",
      "type": "debug",
      "z": "94496328.f50fa",
      "name": "",
      "active": true,
      "console": "false",
      "complete": "false",
      "x": 240,
      "y": 280,
      "wires": []
    },
    {
      "id": "54a1c217.648e7c",
      "type": "create-event",
      "z": "94496328.f50fa",
      "event": "message_out",
      "KEEN_PROJECT_ID": "56ea294b59949a4ab87d2a75",
      "KEEN_WRITE_KEY": "264b802f95a76a342c2297959fb38eebba9bdf18d49f05123caa2ea54d31e30292c0499dec5a5e87582d78615a115314ce0ffcafd042abe601a594a274ac99eb10c8be5ab295a18f183b726aff6181bd6c472c1e69b67aa902dfe1cd28ebaeb3",
      "APP_NAME": "techsprint-app",
      "name": "message_out event",
      "x": 610,
      "y": 227,
      "wires": []
    }
  ]
}