{
  "type": "tab",
  "id": "ca2da793.95b498",
  "label": "Status Updates",
  "flow": [
    {
      "id": "c6616e04.d6aa9",
      "type": "onthedot-connection",
      "z": "ca2da793.95b498",
      "name": "Red Ant",
      "api_url": "https://sbapi.onthedot.com/api/v1.0",
      "api_key": "1dOHtajAxKpCP0kLnc6BKMI6ZeQa"
    },
    {
      "id": "38555bd5.d1f734",
      "type": "onthedot-connection",
      "z": "ca2da793.95b498",
      "name": "Red Ant",
      "api_url": "https://sbapi.onthedot.com/api/v1.0",
      "api_key": "1dOHtajAxKpCP0kLnc6BKMI6ZeQa"
    },
    {
      "id": "91733bb.5e5fcc8",
      "type": "onthedot-status-update",
      "z": "ca2da793.95b498",
      "creds": "c6616e04.d6aa9",
      "name": "",
      "x": 911.5,
      "y": 604,
      "wires": [
        [
          "b4a67cb1.76b3d"
        ]
      ]
    },
    {
      "id": "cd804a36.9fea28",
      "type": "function",
      "z": "ca2da793.95b498",
      "name": "",
      "func": "msg.payload = {\n  store_id: \"RedAnt-01\",\n  order_number: msg.payload.order_number,\n  status: \"JobAlloc\",\n  stop_id: null\n};\nreturn msg;\n",
      "outputs": 1,
      "noerr": 0,
      "x": 661.5,
      "y": 432,
      "wires": [
        [
          "91733bb.5e5fcc8"
        ]
      ]
    },
    {
      "id": "66834afe.3b8434",
      "type": "inject",
      "z": "ca2da793.95b498",
      "name": "Update to JobAlloc",
      "topic": "",
      "payload": "",
      "payloadType": "date",
      "repeat": "",
      "crontab": "",
      "once": false,
      "x": 263,
      "y": 432,
      "wires": [
        [
          "47a923d9.f8299c"
        ]
      ]
    },
    {
      "id": "b4a67cb1.76b3d",
      "type": "debug",
      "z": "ca2da793.95b498",
      "name": "",
      "active": true,
      "console": "false",
      "complete": "false",
      "x": 1114.5714416503906,
      "y": 601.1428365707397,
      "wires": []
    },
    {
      "id": "b50a07a6.d01098",
      "type": "function",
      "z": "ca2da793.95b498",
      "name": "",
      "func": "msg.payload = {\n  store_id: \"RedAnt-01\",\n  order_number: msg.payload.order_number,\n  status: \"Accept\",\n  stop_id: null\n};\nreturn msg;",
      "outputs": 1,
      "noerr": 0,
      "x": 661.5,
      "y": 496,
      "wires": [
        [
          "91733bb.5e5fcc8"
        ]
      ]
    },
    {
      "id": "492e6952.3db278",
      "type": "inject",
      "z": "ca2da793.95b498",
      "name": "Update to Accept",
      "topic": "",
      "payload": "",
      "payloadType": "date",
      "repeat": "",
      "crontab": "",
      "once": false,
      "x": 261,
      "y": 496,
      "wires": [
        [
          "a057a915.3760d8"
        ]
      ]
    },
    {
      "id": "6e2adceb.8e0dd4",
      "type": "function",
      "z": "ca2da793.95b498",
      "name": "",
      "func": "msg.payload = {\n  store_id: \"RedAnt-01\",\n  order_number: msg.payload.order_number,\n  status: \"ArrivedAt\",\n  stop_id: \"1.0\"\n};\nreturn msg;",
      "outputs": 1,
      "noerr": 0,
      "x": 663.5,
      "y": 604,
      "wires": [
        [
          "91733bb.5e5fcc8"
        ]
      ]
    },
    {
      "id": "c1c184c2.4bdec8",
      "type": "inject",
      "z": "ca2da793.95b498",
      "name": "Update to ArrivedAt 1.0",
      "topic": "",
      "payload": "",
      "payloadType": "date",
      "repeat": "",
      "crontab": "",
      "once": false,
      "x": 259,
      "y": 604,
      "wires": [
        [
          "a31ae9ab.1da958"
        ]
      ]
    },
    {
      "id": "e1ff5973.409e78",
      "type": "function",
      "z": "ca2da793.95b498",
      "name": "",
      "func": "msg.payload = {\n  store_id: \"RedAnt-01\",\n  order_number: msg.payload.order_number,\n  status: \"Pickup\",\n  stop_id: \"1.0\"\n};\nreturn msg;",
      "outputs": 1,
      "noerr": 0,
      "x": 664.5,
      "y": 664,
      "wires": [
        [
          "91733bb.5e5fcc8"
        ]
      ]
    },
    {
      "id": "fafa067d.a495d8",
      "type": "inject",
      "z": "ca2da793.95b498",
      "name": "Update to Pickup 1.0",
      "topic": "",
      "payload": "",
      "payloadType": "date",
      "repeat": "",
      "crontab": "",
      "once": false,
      "x": 265,
      "y": 664,
      "wires": [
        [
          "6ae14cfd.3efad4"
        ]
      ]
    },
    {
      "id": "6589cd2b.d2f744",
      "type": "function",
      "z": "ca2da793.95b498",
      "name": "",
      "func": "msg.payload = {\n  store_id: \"RedAnt-01\",\n  order_number: msg.payload.order_number,\n  status: \"ArrivedAt\",\n  stop_id: \"2.0\"\n};\nreturn msg;",
      "outputs": 1,
      "noerr": 0,
      "x": 663.5,
      "y": 733,
      "wires": [
        [
          "91733bb.5e5fcc8"
        ]
      ]
    },
    {
      "id": "603b9f9b.77532",
      "type": "inject",
      "z": "ca2da793.95b498",
      "name": "Update to ArrivedAt 2.0",
      "topic": "",
      "payload": "",
      "payloadType": "date",
      "repeat": "",
      "crontab": "",
      "once": false,
      "x": 263,
      "y": 733,
      "wires": [
        [
          "15c26c48.856734"
        ]
      ]
    },
    {
      "id": "63d96b0d.257224",
      "type": "function",
      "z": "ca2da793.95b498",
      "name": "",
      "func": "msg.payload = {\n  store_id: \"RedAnt-01\",\n  order_number: msg.payload.order_number,\n  status: \"Complete\",\n  stop_id: \"2.0\"\n};\nreturn msg;",
      "outputs": 1,
      "noerr": 0,
      "x": 658.5,
      "y": 803,
      "wires": [
        [
          "91733bb.5e5fcc8"
        ]
      ]
    },
    {
      "id": "2ac8dd11.5d8942",
      "type": "inject",
      "z": "ca2da793.95b498",
      "name": "Update to Complete",
      "topic": "",
      "payload": "",
      "payloadType": "date",
      "repeat": "",
      "crontab": "",
      "once": false,
      "x": 263,
      "y": 803,
      "wires": [
        [
          "29511063.420d5"
        ]
      ]
    },
    {
      "id": "47a923d9.f8299c",
      "type": "subflow:fe249741.2122c8",
      "z": "ca2da793.95b498",
      "name": "",
      "x": 477,
      "y": 432,
      "wires": [
        [
          "cd804a36.9fea28"
        ]
      ]
    },
    {
      "id": "a057a915.3760d8",
      "type": "subflow:fe249741.2122c8",
      "z": "ca2da793.95b498",
      "name": "",
      "x": 477,
      "y": 496,
      "wires": [
        [
          "b50a07a6.d01098"
        ]
      ]
    },
    {
      "id": "a31ae9ab.1da958",
      "type": "subflow:fe249741.2122c8",
      "z": "ca2da793.95b498",
      "x": 480,
      "y": 604,
      "wires": [
        [
          "6e2adceb.8e0dd4"
        ]
      ]
    },
    {
      "id": "6ae14cfd.3efad4",
      "type": "subflow:fe249741.2122c8",
      "z": "ca2da793.95b498",
      "x": 479,
      "y": 664,
      "wires": [
        [
          "e1ff5973.409e78"
        ]
      ]
    },
    {
      "id": "15c26c48.856734",
      "type": "subflow:fe249741.2122c8",
      "z": "ca2da793.95b498",
      "x": 479,
      "y": 733,
      "wires": [
        [
          "6589cd2b.d2f744"
        ]
      ]
    },
    {
      "id": "29511063.420d5",
      "type": "subflow:fe249741.2122c8",
      "z": "ca2da793.95b498",
      "x": 476,
      "y": 803,
      "wires": [
        [
          "63d96b0d.257224"
        ]
      ]
    },
    {
      "id": "5d854308.cb5b8c",
      "type": "inject",
      "z": "ca2da793.95b498",
      "name": "",
      "topic": "",
      "payload": "",
      "payloadType": "date",
      "repeat": "",
      "crontab": "",
      "once": false,
      "x": 230,
      "y": 174,
      "wires": [
        [
          "fca25e69.83de8"
        ]
      ]
    },
    {
      "id": "fca25e69.83de8",
      "type": "function",
      "z": "ca2da793.95b498",
      "name": "",
      "func": "msg.payload = {\n    store_id: 'RedAnt-01',\n    postcode: 'SE18NW',\n    delivery_date: '2016-03-24T18:45:00Z'\n};\nreturn msg;",
      "outputs": 1,
      "noerr": 0,
      "x": 374,
      "y": 174,
      "wires": [
        [
          "2190515f.05fbae"
        ]
      ]
    },
    {
      "id": "2190515f.05fbae",
      "type": "onthedot-timeslot",
      "z": "ca2da793.95b498",
      "creds": "38555bd5.d1f734",
      "name": "",
      "store_id": "",
      "postcode": "",
      "delivery_date": "",
      "x": 515,
      "y": 174,
      "wires": [
        [
          "7384b39e.c6cfec"
        ]
      ]
    },
    {
      "id": "7384b39e.c6cfec",
      "type": "function",
      "z": "ca2da793.95b498",
      "name": "Create booking",
      "func": "msg.payload = {\n    uuid: msg.payload.data.data.uuid,\n    booking: {\n      timeslot: {\n        timeslotId: msg.payload.data.data.timeslots[0].timeslotId\n      },\n      webhook: \"http://omnibright.cloud.tyk.io/redant/\",\n      orderType: \"1\",\n      supplierId: \"CitySprint\",\n      accountNumber: \"\",\n      serviceType: \"\",\n      referenceNo: \"\",\n      departmentReferenceNo: \"\",\n      store: {\n        storeId: \"RedAnt-01\",\n        instruction: \"test\"\n      },\n      consumer: {\n        name: \"test\",\n        email: \"xyzstore@mail.com\",\n        mobileNumber: \"7777777777\",\n        address: {\n          firstLine: \"House A\",\n          secondLine: \"Street B\",\n          city: \"House A\",\n          postCode: \"HA11JU\"\n        },\n        instruction: \"\"\n      },\n      item: {\n        referenceNumber: \"123456\",\n        itemContentCount: 1,\n        weight: 0,\n        height: 0,\n        length: 0,\n        description: \"\"\n      },\n      notificationType: \"\"\n    }\n\n};\n\nreturn msg;",
      "outputs": 1,
      "noerr": 0,
      "x": 681,
      "y": 174,
      "wires": [
        [
          "80dfd086.9ec3b"
        ]
      ]
    },
    {
      "id": "80dfd086.9ec3b",
      "type": "onthedot-booking",
      "z": "ca2da793.95b498",
      "creds": "38555bd5.d1f734",
      "name": "Create Booking",
      "x": 868,
      "y": 174,
      "wires": [
        [
          "406657f8.9150d8"
        ]
      ]
    },
    {
      "id": "406657f8.9150d8",
      "type": "debug",
      "z": "ca2da793.95b498",
      "name": "",
      "active": true,
      "console": "false",
      "complete": "false",
      "x": 983.5,
      "y": 253,
      "wires": []
    },
    {
      "id": "c7e8c863.46c498",
      "type": "comment",
      "z": "ca2da793.95b498",
      "name": "Create new booking",
      "info": "",
      "x": 237,
      "y": 108,
      "wires": []
    },
    {
      "id": "2ab3086.b1c7df8",
      "type": "comment",
      "z": "ca2da793.95b498",
      "name": "Update status of order",
      "info": "",
      "x": 262,
      "y": 360,
      "wires": []
    }
  ]
}