{
  "id": "fef41e82.e5255",
  "type": "subflow",
  "name": "Ask Track Id",
  "info": "",
  "in": [
    {
      "x": 220,
      "y": 240,
      "wires": [
        {
          "id": "4267cf7.823a43"
        }
      ]
    }
  ],
  "out": [
    {
      "x": 520,
      "y": 240,
      "wires": [
        {
          "id": "4267cf7.823a43",
          "port": 0
        }
      ]
    }
  ],
  "flow": [
    {
      "id": "4267cf7.823a43",
      "type": "function",
      "z": "fef41e82.e5255",
      "name": "",
      "func": "var phrases = global.get('phrases');\nmsg.payload = {\n    message : phrases.ask_for_tracking_id\n}\nreturn msg;",
      "outputs": 1,
      "noerr": 0,
      "x": 370,
      "y": 240,
      "wires": [
        []
      ]
    }
  ]
}